{
	"com.pocketiptv": {
"ads_sequence": [
		"facebook_ads"
	],
	"app_logo": "https://play-lh.googleusercontent.com/DviEA28-3k_q7mb1mbF8ZMRdYNRmqEGYMzQ3SJnSdEo5hRkFmxgpr2uKb1z8wnsCpcU=w240-h480-rw",
	"app_title": "Pocket IPTV",
	"is_all_ads": true,
	"more_app_url": "https://play.google.com/store/apps/developer?id=Pocket+IPTV+%E2%84%A2",
	"extra_url": "https://gitlab.com/bitcodingsolutions/iptv_channels/-/raw/main/Live_Channels/Original/Antigua%20and%20Barbuda.json",
	"more_live_apps": "https://gitlab.com/vs.bitcoding/live_apps/-/raw/main/live_apps.json",
	"ad_setting": {
		"app_version_code": 18,
		"is_full_ads": false,
		"onesignal_id": "92604f10-e275-42e5-85a5-64ca1279c27e",
		"ads_loading_text": "Ad is loading...",
		"is_geoedge_sdk_flag": false,
		"geoedge_sdk_key": "",
		"seconds_require_triger_reward": 1,
		"global_intra_interval_click": 1,
		"interstitial_ad_time_interval": 0,
		"native_ad_list_interval": 1
	},
	"app_update": {
		"is_popup_dialog": true,
		"is_update_require": true,
		"package_id": "com.pocketiptv",
		"download_url": "",
		"website_url": "https://play.google.com/store/apps/details?id=com.pocketiptv",
		"is_system_browser": true,
		"is_user_community_support": false,
		"updated_version_code": 19,
		"live_version_code": 19,
		"filename": "POCKET_IPTV_CHANNEL.apk",
		"title": "App Update",
		"default_message": "Your App is Up to date.",
		"log_message": "- Now become more powerfull IPTV Player",
		"downloading_message": "App Downloading",
		"installing_message": "App Install",
		"app_icon": "https://play-lh.googleusercontent.com/DFrL4OmwEWMQnRjs9tBcekNn6DYrlehENI0aAD5XphVvenROVKOon7sfLf84YhmyM08=w240-h480-rw",
		"is_shuffle": false,
		"change_dialogdata_click_count": 1,
		"app_list_url": "https://gitlab.com/bitcodingsolutions/other/-/raw/main/App_Update_Apps.json"
	},
	"exit_dialog": {
		"exit_message": "Do you want to exit from App?",
		"exit_title": "Exit",
		"is_exit_require": true
	},
	"reward_dialog": {
		"is_reward_require": true,
		"reward_message": "Watch Reward ads for More Random Video call"
	},
	"app_guide_data": {
		"guide_player_selection_menu": {
			"is_guide": true,
			"guide_title": "Player Selection",
			"guide_description": "You can choose your favorite player for play video/live stream here."
		},
		"guide_search_action": {
			"is_guide": true,
			"guide_title": "Search",
			"guide_description": "you can search any channel very smartly\n\nyou can save your time to finding any channel."
		},
		"guide_navigation_drawer": {
			"is_guide": true,
			"guide_title": "Main Menu",
			"guide_description": "You can get Pocket IPTV supports and features here."
		},
		"guide_add_playlist": {
			"is_guide": true,
			"guide_title": "Add Playlist",
			"guide_description": "You can add playlist from here."
		},
		"guide_add_playlist_file": {
			"is_guide": true,
			"guide_title": "Add Playlist File",
			"guide_description": "Add playlist File of following extensions (RUTU, .JSON, .M3U, .M3U8, .TXT, .XSPF) \nIt will open file chooser."
		},
		"guide_add_playlist_url": {
			"is_guide": true,
			"guide_title": "Add Playlist URL",
			"guide_description": "Add playlist URL which is getting from playlist provider on web (you have to find playlist URL and paste it here)."
		},
		"guide_add_playlist_qr_code": {
			"is_guide": true,
			"guide_title": "Add Playlist Through QR Code",
			"guide_description": "By this you have to scan those QR code which provide from web or from application of other friends.\nHere you have to just scan QR code and playlist automatically load to the app."
		},
		"guide_add_playlist_web_search": {
			"is_guide": true,
			"guide_title": "Search Play list",
			"guide_description": "Here you can search playlist on web. It will directly redirect to playlist providers"
		},
		"guide_playlist_delete": {
			"is_guide": true,
			"guide_title": "Delete Playlist Item",
			"guide_description": "You can delete selected playlist items from here, also undo it."
		},
		"guide_playlist_share": {
			"is_guide": true,
			"guide_title": "Share Playlist URL",
			"guide_description": "You can share Web Playlist URL with QR code to your friends & your friends also enjoy same playlist."
		},
		"guide_playlist_qr_code_viewer": {
			"is_guide": true,
			"guide_title": "QR Code",
			"guide_description": "You can open QR Code so your frineds directly can scan this code and add same playlist by this feature."
		},


		"guide_current_iptv_adapter": {
			"is_guide": true,
			"guide_title": "IPTV Playlist Item",
			"guide_description": "Here you can switch playlist by simple clicking.\n\nIf you want to delete or share web iptv playlist then LONG PRESS on playlist item."
		},
		"guide_current_iptv_adapter_icon": {
			"is_guide": true,
			"guide_title": "Share & Delete",
			"guide_description": "You can share & delete playlist item by simple pressing on icon or long pressing on playlist item."
		},


		"guide_video_player_report_channel": {
			"is_guide": true,
			"guide_title": "Report Channels",
			"guide_description": "Report us about channel."
		},
		"guide_video_player_chromecast": {
			"is_guide": true,
			"guide_title": "Casting Content",
			"guide_description": "Touch to cast content to available device."
		}
	},
	"inapp_purchase_settings": {
		"class_name": "com.purchase.core.MainActivity",
		"purchase_package_id1": "com.purchase.core",
		"purchase_package_id": "com.pocketiptv",
		"download_url": "https://raw.githubusercontent.com/rutumaster/Pocket-TV/Final-Apps/All-In-One_Purcahse/APK/All%20In%20One%20Purchase.apk",
		"filename": "Purchase_Core.apk",
		"purchase_title": "Purchase Core",
		"purchase_message": "If you want to purchase then you have to install Purchase App.\nand then try again to purchase from here once again.",
		"website_url": "",
		"is_system_browser": true,
		"downloading_message": "App Downloading",
		"installing_message": "App Install",
		"inapp_base64EncodedPublicKey": "MIIBIjANBgkqhkiG9w0BAQEFAAOCAQ8AMIIBCgKCAQEAhbxbwByaAeBtBOWnxKoYqIMcmgopIpgLi5G8bL62J1rKNntpV5ildIO0rZo8umb8KQHtxDg58Hevlb1gvPYVKRjTQTQCMJ99vzx7kkqwX1RUxVWuL5/Iixyrp3GgHdEb8YtVGDTN5hhLqgkCQ/iE52gMFC7UhU8dN7e+GWhsQsHfqhA9K6Xrh/jEv4pAjxN10kYXYDNvyxq7KA+j4d1qEbaJjUzKXbIeUTfNhueL+/IlMUKnTL1Z6h6ZzkUh3jsvzSbeWeWBoaEDh+xz7QdqsxUz+2JAwffYeLZMyFmfLciWdk8zZ7hVO47wDare3FGmC/lV2Xjv4bhQpc6Zzyv+vQIDAQAB",
		"inapp_base64EncodedPublicKey1": "MIIBIjANBgkqhkiG9w0BAQEFAAOCAQ8AMIIBCgKCAQEApLE+5061d1CMY+2i9gmWOfp/2frJ8am0gZcck7l7VxwUKLsHmWfapCKj2hKxJWb2SS9O9WAAKLLav/xqCz3KjaHpPT/h1aMiBV7UbhiXU0upDxndPjRWqIn2gsAkxiRoOcAxh0d365YL5qatzGqBOWw2tGwnEc5f1bgmZuCs+wgXXwjiEUY1eHLwjc0wsLT/8H9zpARUhsTh3eefHDesg6Yakfi9F+l8B/Y6tuWheWdB1WFwrDFJuiXv2Kq6Dcb80MiPPNIhO2wIf+1CsVDvgsRQGBDKJFPBpKznNdibDiYL0qS7R1Xu3Bh63Mvt9ns3yKQTR0yQ4x9xRvpRIk7o+QIDAQAB",
		"class_name_all": "com.allinone.purchase.MainActivity"
	},
	"start_up_popup": {
		"is_override": false,
		"is_start_up_popup": false,
		"reminder_code": "",
		"mode": "web_and_video",
		"is_system_browser": true,
		"banner_url": "https://images-na.ssl-images-amazon.com/images/I/81njDKVuFsL._SL1500_.jpg",
		"full_title": "Redmi Y2 (Dark Grey, 64GB)\nINR. 12,999.00",
		"description": "Warranty Details: 1 year manufacturer warranty for device and 6 months manufacturer warranty for in-box accessories including batteries from the date of purchase Warranty Details: 1 year manufacturer warranty for device and 6 months manufacturer warranty for in-box accessories including batteries from the date of purchase Description of1 year manufacturer warranty for device and 6 months manufacturer warranty for in-box accessories including batteries from the date of purchase Description of affiliatedevice and 6 months manufacturer warranty for in-box accessories including batteries from the date of purchase Description of affiliatedevice and 6 months manufacturer warranty for in-box accessories including batteries from the date of purchase Description of affiliate",
		"website_url": "https://www.amazon.in/Redmi-Y2-Dark-Grey-64GB/dp/B077PWBDV3/ref=sr_1_1?s=electronics&ie=UTF8&qid=1535716912&sr=1-1&keywords=y2",
		"thumbnail_url": "https://m.media-amazon.com/images/G/31/img18/Wireless/CEEX/RedmiY2/E6_200x200._CB476604799_UY80_QL95_.jpg"
	},
	"supports_availability": {
		"is_override": false,
		"is_smart_player_support": true,
		"is_android_player_support": true,
		"is_webview_player_support": true,
		"is_other_player_support": true,
		"is_inapp_other_player_support": true,
		"is_other_player_session_free_support": false,

		"is_cast_support": true,
		"is_inapp_cast_support": true,
		"is_cast_session_free_support": false,

		"is_remove_ads_support": true,
		"is_remove_ads_session_free_support": true,

		"is_purchase_restore_support": true,


		"is_original_thumb_icon": true,
		"is_playlist_support": false,
		"is_barcode_support": false
	},
	"other_player_support": {
		"other_player_title": "Other Player Support",

		"inapp_other_player_sku": "com.pocketiptv.otherplayeroption",
		"inapp_other_player_message": "If you want to play video on you favorite video player.\n\nThen you should purchase this service.\n\nYou will get player chooser while you try to play any video or channel from Pocket IPTV.",

		"other_player_banner_url": "https://raw.githubusercontent.com/rutumaster/Pocket-TV/Final-Apps/COMMON/Images-PocketTV/Other/Player-select.jpg?alt=media&token=42a59563-69ca-4048-81de-96d82fb952b0",

		"success_other_player_message": "Congratulations!\nNow you can play video in outside player also."
	},
	"chromecast_support": {
		"is_override": false,
		"cast_title": "Chromecast Support",

		"cast_agent": "09",
		"cast_referer": "https://www.metube.id",
		"cast_package_name": "com.instantbits.cast.webvideo",
		"inapp_cast_sku": "com.pocketiptv.chromecast",
		"inapp_cast_message": "If you want to play video on you TV.\n\nThen you should purchase this service.\n\nYou will get chromecast support from Pocket IPTV.",
		"cast_banner_url": "https://www.hyperlinkinfosystem.com/assets/uploads/banner/1479248554.png",
		"initial_cast_message1": "Do you need Chromecast support then follow below steps :\n\n(1). Press \"SETUP\" button.\n(2). If It will ask for permission please allow.\n(3). It will open download dialog and please wait till download completion.\n(4). After you can see \"INSTALL\" button, press \"INSTALL\" button.\n(5). After It will popup for installation screen and then \"INSTALL\" it.\n(6). After installation complete press \"DONE\" button.\n(7). Come back to Pocket IPTV and you will see your plugin activated.\n(9). If you can't setup then : <a href='https://github.com/rutumaster/Pocket-TV/raw/Final-Apps/COMMON/APKS/ChromeCast.apk'>DOWNLOAD HERE</a>\n\n",
		"initial_cast_message": "Do you need Chromecast support then press \"LINK\" button and install chromecast app from playstore.",
		"success_cast_message": "Now You can Chromecast Your Video From Player.",
		"download_url1": "",
		"website_url": "",
		"is_system_browser": true,
		"filename": "RUTU_CHROMECAST.apk",
		"downloading_message": "App Downloading",
		"installing_message": "App Install"
	},
	"remove_ads_support": {
		"remove_ads_title": "Remove Ads Support",
		"inapp_remove_ads_sku": "com.pocketiptv.removeads",
		"inapp_remove_ads_message": "If you want to remove ads permanently then \"PAYMENT\".\n\nIf you want to remove ads for this session only then press \"SESSION FREE\" and share app to your friends.",
		"remove_ads_banner_url": "https://ads-blocker.com/wp-content/uploads/2015/02/ads-blocker-logo.png",
		"success_remove_ads_message": "Congratulations!\nNow Pocket IPTV is ADS FREE."
	},
	"purchase_restore_support": {
		"purchase_restore_title": "Purchase Restore",
		"purchase_restore_banner_url": "",
		"purchase_restore_message": "If you purchased Previously?\n\nThen you have to press \"Restore\" Button to restore all purchase.",
		"purchase_restore_success": "Purchase restore success."
	},
	"disclaimer_app": {
		"is_override": false,
		"is_disclaimer_app": true,
		"is_force_approved": true,
		"disclaimer_title": "Disclaimer",
		"disclaimer_message": "Pocket IPTV doesn't contain any built-in channels. you need to have playlist with TV channels in order to this app. it just IPTV player which manage all channels and playlist in well manner."
	},
	"playlist_detail": {
		"playlist_message": "Please contact your IPTV provider to get M3U, M3U8, PLS, RUTU or XSPF playlist with TV Channels",
		"is_system_browser": false,
		"playlist_web_search": "",
		"default_playlist_url": "",
		"default_playlist_url1": "https://raw.githubusercontent.com/theantiqa/PocketIPTV/master/IPTV%20List/World_Channels.rutu"
	},
	"about_app": {
		"is_about_app": true,
		"about_title": "About",
		"about_message": "Pocket IPTV does not warrant the completeness, timeliness or accuracy of any of the data contained in this app and may make changes thereto at any time in its sole discretion without notice. Further, all information conveyed hereby is provided to users “AS IS”. In no event shall Pocket IPTV be liable for any damages of any kind related to the use or misuse of Information provided hereby.\nWe do not host any link or streams. If you found any copyrighted channel, please write us in feedback with appropriate link host for its removal.",
		"registration_detail": "Pocket IPTV",
		"version_detail": "version : 3.0.1"
	},
	"rate_app": {
		"is_rate_app": true,
		"package_id": "com.pocketiptv",
		"rate_app_url": "https://play.google.com/store/apps/details?id=com.pocketiptv",
		"rate_message": "Please Rate us and promote us."
	},
	"share_app": {
		"is_share_app": true,
		"share_message_app": "Are you looking best IPTV Player which manage your playlist and play it. then you hurry up and download pocket iptv from here : https://play.google.com/store/apps/details?id=com.pocketiptv",
		"share_message_iptv": "Share iptv url : ",
		"share_message_link": "Share link url : "
	},
	"terms_of_use": {
		"is_system_browser": true,
		"is_terms_of_use": true,
		"terms_of_use": "https://sites.google.com/view/bitlinksprivacypolicy/home"
	},
	"privacy_policy": {
		"is_privacy_policy": true,
		"is_system_browser": true,
		"privacy_policy": "http://www.pocketiptv.com/privacy-policy"
	},
	"error_report": {
		"email_id": "mailto:bitlinks.llc@gmail.com",
		"is_error_report_support": true,
		"cc_email_id": ""
	},
	"feedback_support": {
		"is_feedback": true,
		"cc_email_id": "",
		"email_id": "pocketiptv@gmail.com",
		"email_message": "Hi,\n\n\nYour Feedback Pocket IPTV Rocks! I would like to give you some feedback: ",
		"email_subject": "Feedback on Pocket IPTV",
		"feedback_title": "Send Feedback",
		"feedback_message": "If you have any kind of query, Then mail us.\nWe will resolve it."
	},
	"official_website": {
		"is_official_website": false,
		"is_system_browser": false,
		"official_website": "http://www.pocketiptv.com"
	},
	"splash_screen": {
		"registration_detail": "Pocket IPTV® 2018",
		"version_detail": "version : 18.0"
	},
	"live_support": {
		"is_live_support": true,
		"fb_messenger_uri": "fb-messenger://user/",
		"fb_messenger_id": "822625707789265",
		"is_system_browser": true,
		"live_support_url": "",
		"banner_url": "https://www.revechat.com/wp-content/uploads/2015/09/24-7-live-chat-support.jpg",
		"website_url": "",
		"progress_downloading_message": "Downloading",
		"progress_install_message": "Installing",
		"application_package_id": "com.facebook.mlite",
		"full_title": "Live Support App",
		"application_download_url": "",
		"description": "For Live Support,\n\nYou have to install this app after that you will be touch with us",
		"thumbnail_url": "https://getfblite.com/wp-content/uploads/2017/08/messenger-lite-2.png"
	},
	"channel_report_support": {
		"is_channel_report": true,
		"cc_email_id": "",
		"email_id": "pocketiptv@gmail.com",
		"channel_report_title": "Channel Report"
	},
	"social_support": {
		"is_social": false,
		"social_title": "Social",
		"social_message": "Like and share post in social media.",
		"facebook_page_url": "fb://page/822625707789265",
		"facebook_url": "https://www.facebook.com/822625707789265",
		"instagram_url": "https://www.instagram.com/",
		"twitter_url": "https://www.twitter.com/",
		"youtube_url": "https://www.youtube.com/",
		"google_plus_url": "https://plus.google.com/",
		"linkedin_url": "https://www.linkedin.com/",
		"linkedin_page_url": "linkedin://id"
	},
	"live_stream_settings": {
		"planet_url": "http://app.liveplanettv.com/beta/",
		"diltv_pak_url": "https://www.diltv.org/apps/output.php/playlist?type=xml&deviceSn=pakentnews&token=",
		"diltv_dhamaka_url": "https://www.diltv.org/apps/output.php/playlist?type=xml&deviceSn=dhamkatv1&token=",
		"swift_url": "http://swiftstreamz.com/SwiftLive/api.php?latest=5000",
		"channel_error_message": "Channel not play because server is down.\nTry After Some Time",
		"swift_token_url": "http://swiftstreamz.com/SwiftLive/swiftlive.php",
		"swift_token_password": "SwiftStreamz:@SwiftStreamz@",
		"dhamaka_token_url": "https://www.boxtvhd.com/androidapsbackup/dhamkatv.php",
		"dhamaka_token_password": "AltafhussainMQM:Pakistanzindabad"
	},
	"video_player_settings": {
		"is_trial_version": false,
		"trial_version_top_text": "TOP",
		"trial_version_bottom_text": "BOTTOM",
		"trial_version_height": 70,
		"trial_version_bg_color": "#000000",
		"trial_version_text_color": "#ffffff"
	},
	"google_ads": {
		"ads_app_id": "ca-app-pub-5004393487171509~6685526148",
		"banner_ad_unit_id_android": "/21753324030,22831392815/com.pocketiptv_Banner",
		"interstitial_ad_unit_id_android": "/21753324030,22831392815/com.pocketiptv_Interstitial",
		"app_open_ad_unit_id_android": "",
		"native_ads_unit_id_android": "/21753324030,22831392815/com.pocketiptv_Native",
		"rewared_ads_unit_id": "/21753324030,22831392815/com.pocketiptv_Rewarded",
		"native_video_ads_unit_id_android": "/6499/example/native-video",
		"is_banner_ads": false,
		"is_interstitial_ads": false,
		"is_native_ads": false,
		"is_open_ads": false,
		"is_rewared_ads": false,
		"no_of_click_interstitial": 1
	},
	"google_ads_test": {
		"ads_app_id": "ca-app-pub-5004393487171509~6685526148",
		"banner_ad_unit_id_android": "/6499/example/banner",
		"interstitial_ad_unit_id_android": "/6499/example/interstitial",
		"app_open_ad_unit_id_android": "/6499/example/app-open",
		"native_ads_unit_id_android": "/6499/example/native",
		"rewared_ads_unit_id": "/6499/example/rewarded",
		"native_video_ads_unit_id_android": "/6499/example/native-video",
		"is_banner_ads": true,
		"is_interstitial_ads": true,
		"is_native_ads": true,
		"is_open_ads": true,
		"is_rewared_ads": true,
		"no_of_click_interstitial": 1
	},
	"facebook_ads": {
		"ads_app_id": "353151288785830",
		"banner_ad_unit_id_android": "353151288785830_353151742119118",
		"interstitial_ad_unit_id_android": "353151288785830_353152322119060",
		"is_banner_ads": true,
		"is_interstitial_ads": true,
		"is_native_ads": true,
		"is_rewared_ads": true,
		"native_ads_unit_id_android": "",
		"native_video_ads_unit_id_android": "",
		"no_of_click_interstitial": 1,
		"rewared_ads_unit_id": ""
	},
	"app_lovin": {
		"sdk_key": "WELTwtWXafsts82Q1HIQ2v7OeEHUtGHOUcsPTMx21owuxzIzEbNGUVf8kycbCu-hVr5zB10Dpx5luOh7-4NSZ2",
		"is_unlimited_ads": false,
		"id_unit_banner": "",
		"id_unit_intra": "",
		"id_unit_native_multiple": {
			"small": "",
			"medium": "",
			"manual": ""
		},
		"id_unit_open": "",
		"rewared_ads_unit_id": "",
		"is_banner_ads": false,
		"is_interstitial_ads": false,
		"is_native_ads": false,
		"is_open_ads": false,
		"is_rewared_ads": false
	},
	"custom_ads": {
		"qureka_link": "https://490.go.qureka.com/intro/question",
		"is_quraka_banner": true,
		"is_quraka_intera": true,
		"is_quraka_native": true,
		"is_quraka_open_ad": true,
		"close_button_to_direct_web": true,
		"quraka_intra_image": [
			"https://github.com/pragneshpalsanabitcoding/image_quraka/blob/main/360X640_1.png?raw=true",
			"https://github.com/pragneshpalsanabitcoding/image_quraka/blob/main/360X640_2.png?raw=true",
			"https://github.com/pragneshpalsanabitcoding/image_quraka/blob/main/360X640_3.png?raw=true",
			"https://github.com/pragneshpalsanabitcoding/image_quraka/blob/main/360X640_4.png?raw=true",
			"https://github.com/pragneshpalsanabitcoding/image_quraka/blob/main/360X640_5.png?raw=true",
			"https://github.com/pragneshpalsanabitcoding/image_quraka/blob/main/360X640_6.png?raw=true"
		],
		"quraka_native_image": [
			"https://github.com/pragneshpalsanabitcoding/image_quraka/blob/main/2.jpg?raw=true",
			"https://github.com/pragneshpalsanabitcoding/image_quraka/blob/main/3.jpg?raw=true",
			"https://github.com/pragneshpalsanabitcoding/image_quraka/blob/main/320x50.jpg?raw=true",
			"https://github.com/pragneshpalsanabitcoding/image_quraka/blob/main/4.jpg?raw=true",
			"https://github.com/pragneshpalsanabitcoding/image_quraka/blob/main/5.jpg?raw=true",
			"https://github.com/pragneshpalsanabitcoding/image_quraka/blob/main/6.jpg?raw=true"
		],
		"quraka_banner_image": [
			"https://github.com/pragneshpalsanabitcoding/image_quraka/blob/main/2.jpg?raw=true",
			"https://github.com/pragneshpalsanabitcoding/image_quraka/blob/main/3.jpg?raw=true",
			"https://github.com/pragneshpalsanabitcoding/image_quraka/blob/main/320x50.jpg?raw=true",
			"https://github.com/pragneshpalsanabitcoding/image_quraka/blob/main/4.jpg?raw=true",
			"https://github.com/pragneshpalsanabitcoding/image_quraka/blob/main/5.jpg?raw=true",
			"https://github.com/pragneshpalsanabitcoding/image_quraka/blob/main/6.jpg?raw=true"
		],
		"quraka_open_ad_image": {
			"app_logo": "https://play-lh.googleusercontent.com/33_mPNzvE6WRV6czGRm8EhSrSh0G9wnRQRfMXfcqQLU8j3z4UYu7nrgw5SmaP9UFf0U=s180-rw",
			"app_title": "Brazil Live TV",
			"live_apps_json_url": null,
			"is_live_apps": false,
			"open_ad_timer": 8,
			"is_live_apps_randomly": true
		}
	}
	}
	
}
